…
    ## Adding missing grouping variables: `.id`

Next, we’ll calculate the confidence intervals.

``` r
weather_bootstrap |>
  summarize(
    rsq_lower_ci=quantile(r_squared, 0.025),
    rsq_upper_ci=quantile(r_squared, 0.975)
  )
```

    ## # A tibble: 5,000 × 3
    ##    id    rsq_lower_ci rsq_upper_ci
    ##    <chr>        <dbl>        <dbl>
    ##  1 0001         0.907        0.907
    ##  2 0002         0.913        0.913
    ##  3 0003         0.912        0.912
    ##  4 0004         0.907        0.907
    ##  5 0005         0.912        0.912
    ##  6 0006         0.927        0.927
    ##  7 0007         0.929        0.929
    ##  8 0008         0.936        0.936
    ##  9 0009         0.918        0.918
    ## 10 0010         0.927        0.927
    ## # ℹ 4,990 more rows

``` r
weather_bootstrap |>
  summarize(
    beta_lower_ci=quantile(b1x2, 0.025),
    beta_upper_ci=quantile(b1x2, 0.975)
  )
```

    ## # A tibble: 5,000 × 3
    ##    id    beta_lower_ci beta_upper_ci
    ##    <chr>         <dbl>         <dbl>
    ##  1 0001           1.00          1.00
    ##  2 0002           1.01          1.01
    ##  3 0003           1.00          1.00
    ##  4 0004           1.02          1.02
    ##  5 0005           1.02          1.02
    ##  6 0006           1.04          1.04
    ##  7 0007           1.01          1.01
    ##  8 0008           1.01          1.01
    ##  9 0009           1.02          1.02
    ## 10 0010           1.01          1.01
    ## # ℹ 4,990 more rows
…
